module gitlab.com/berrange/go-mod-test2

go 1.11
retract v3.0.0
retract v3.1.0
retract v3.2.0
retract v3.3.0
retract v3.4.0
retract v3.5.0
retract v3.7.0
retract v3.8.0
retract v3.9.0
retract v4.0.0
retract v4.1.0
retract v4.10.0
retract v4.2.0
retract v4.4.0
retract v4.5.0
retract v4.6.0
retract v4.7.0
retract v4.8.0
retract v5.0.0
retract v5.1.0
retract v5.10.0
retract v5.2.0
retract v5.4.0
retract v5.5.0
retract v5.6.0
retract v5.6.1
retract v5.7.0
retract v5.8.0
retract v6.0.0
retract v6.1.0
retract v6.10.0
retract v6.3.0
retract v6.4.0
retract v6.5.0
retract v6.6.0
retract v6.7.0
retract v6.8.0
retract v6.9.0
retract v7.0.0
retract v7.1.0
retract v7.2.0
retract v7.2.1
